LR1/QuartusProjectFiles/simulation/qsim/CL_Lab1.msim.vcd
$comment
	File created using the following command:
		vcd file CL_Lab1.msim.vcd -direction
$end
$date
	Thu Feb 19 19:41:08 2026
$end
$version
	ModelSim Version 10.1d
$end
$timescale
	1ps
$end
$scope module CL_Lab1_vlg_vec_tst $end
$var reg 1 ! in_x1 $end
$var reg 1 " in_x1_2 $end
$var reg 1 # in_x2 $end
$var reg 1 $ in_x2_2 $end
$var reg 1 % in_x3 $end
$var reg 1 & in_x3_2 $end
$var wire 1 ' out_y $end
$var wire 1 ( out_y_2 $end
$var wire 1 ) sampler $end
$scope module i1 $end
$var wire 1 * gnd $end
$var wire 1 + vcc $end
$var wire 1 , unknown $end
$var tri1 1 - devclrn $end
$var tri1 1 . devpor $end
$var tri1 1 / devoe $end
$var wire 1 0 out_y~output_o $end
$var wire 1 1 out_y_2~output_o $end
$var wire 1 2 in_x1~input_o $end
$var wire 1 3 in_x2~input_o $end
$var wire 1 4 in_x3~input_o $end
$var wire 1 5 inst|inst12~0_combout $end
$var wire 1 6 in_x2_2~input_o $end
$var wire 1 7 in_x3_2~input_o $end
$var wire 1 8 in_x1_2~input_o $end
$var wire 1 9 inst5~0_combout $end
$upscope $end
$upscope $end
$enddefinitions $end
#0
$dumpvars
0!
0"
0#
0$
0%
0&
1'
1(
x)
0*
1+
x,
1-
1.
1/
10
11
02
03
04
05
06
07
08
09
$end
#10000
1!
1"
12
18
0)
15
19
00
01
0'
0(
#20000
1#
1$
0!
0"
13
16
02
08
1)
#30000
1!
1"
12
18
0)
05
09
10
11
1'
1(
#40000
1%
1&
0#
0$
0!
0"
14
17
03
06
02
08
1)
15
19
00
01
0'
0(
#50000
1!
1"
12
18
0)
05
09
10
11
1'
1(
#60000
1#
1$
0!
0"
13
16
02
08
1)
15
19
00
01
0'
0(
#70000
1!
1"
12
18
0)
